This is BibTeX, Version 0.99d
Capacity: max_strings=200000, hash_size=200000, hash_prime=170003
The top-level auxiliary file: RomeroSaavedra_CommunalLands.aux
Reallocating 'name_of_file' (item size: 1) to 8 items.
The style file: apacite.bst
Reallocating 'name_of_file' (item size: 1) to 12 items.
Reallocating 'glb_str_end' (item size: 4) to 20 items.
Reallocating 'glb_str_ptr' (item size: 4) to 20 items.
Reallocating 'global_strs' (item size: 1) to 4000000 items.
Reallocating 'singl_function' (item size: 4) to 100 items.
Reallocating 'wiz_functions' (item size: 4) to 6000 items.
Reallocating 'singl_function' (item size: 4) to 100 items.
Reallocating 'singl_function' (item size: 4) to 100 items.
Reallocating 'wiz_functions' (item size: 4) to 9000 items.
Reallocating 'singl_function' (item size: 4) to 100 items.
Database file #1: Communalbib.bib
Warning--entry type for "divagis" isn't style-file defined
--line 200 of file Communalbib.bib
Warning--entry type for "El2016" isn't style-file defined
--line 208 of file Communalbib.bib
Warning--entry type for "ideam" isn't style-file defined
--line 291 of file Communalbib.bib
Warning--entry type for "sigot" isn't style-file defined
--line 469 of file Communalbib.bib
Warning--entry type for "replication" isn't style-file defined
--line 496 of file Communalbib.bib
apacite.bst [2013/07/21 v6.03 APA bibliography style]
You've used 39 entries,
            6951 wiz_defined-function locations,
            1539 strings with 19008 characters,
and the built_in function-call counts, 80320 in all, are:
= -- 9958
> -- 655
< -- 4097
+ -- 4202
- -- 88
* -- 5245
:= -- 15074
add.period$ -- 161
call.type$ -- 39
change.case$ -- 663
chr.to.int$ -- 0
cite$ -- 78
duplicate$ -- 2070
empty$ -- 2959
format.name$ -- 1123
if$ -- 15009
int.to.chr$ -- 0
int.to.str$ -- 117
missing$ -- 0
newline$ -- 1000
num.names$ -- 312
pop$ -- 1198
preamble$ -- 1
purify$ -- 156
quote$ -- 0
skip$ -- 5161
stack$ -- 0
substring$ -- 4523
swap$ -- 1162
text.length$ -- 97
text.prefix$ -- 0
top$ -- 1
type$ -- 3544
warning$ -- 0
while$ -- 369
width$ -- 0
write$ -- 1258
(There were 5 warnings)
