\relax 
\providecommand\hyper@newdestlabel[2]{}
\providecommand\HyperFirstAtBeginDocument{\AtBeginDocument}
\HyperFirstAtBeginDocument{\ifx\hyper@anchor\@undefined
\global\let\oldcontentsline\contentsline
\gdef\contentsline#1#2#3#4{\oldcontentsline{#1}{#2}{#3}}
\global\let\oldnewlabel\newlabel
\gdef\newlabel#1#2{\newlabelxx{#1}#2}
\gdef\newlabelxx#1#2#3#4#5#6{\oldnewlabel{#1}{{#2}{#3}}}
\AtEndDocument{\ifx\hyper@anchor\@undefined
\let\contentsline\oldcontentsline
\let\newlabel\oldnewlabel
\fi}
\fi}
\global\let\hyper@last\relax 
\gdef\HyperFirstAtBeginDocument#1{#1}
\providecommand\HyField@AuxAddToFields[1]{}
\providecommand\HyField@AuxAddToCoFields[2]{}
\providecommand\babel@aux[2]{}
\@nameuse{bbl@beforestart}
\babel@aux{english}{}
\citation{Ostrom1990}
\citation{Ostrom1998}
\citation{DeJanvrySadoulet2001}
\citation{Gilmour2016}
\citation{Chavez_etal2019}
\citation{DasguptaHeal1979}
\citation{agrawal2001group}
\citation{Yang10916}
\citation{barcelo2015group}
\citation{Andam_etal2008}
\citation{RobalinoPfaff(2012)}
\citation{JonesLewis(2015)}
\citation{PoteeteOstrom(2004)}
\citation{Rueda2010}
\citation{Barsimantovetal2012}
\citation{Pfaff_etal2014}
\citation{BlackmanVeit2018}
\citation{Blackman_etal2017}
\citation{BenYishay_etal2017}
\citation{rustagi2010conditional}
\citation{agrawal2001group}
\citation{Yang10916}
\citation{Buschetal2017}
\citation{AGRAWAL20011649}
\citation{SHIN2020106657}
\citation{agrawal2001group}
\citation{Yang10916}
\citation{BonillaHiguera2019}
\citation{Velez_etal2020}
\citation{BonillaHiguera2019}
\citation{Velez_etal2020}
\@writefile{toc}{\contentsline {section}{\numberline {1}Introduction}{1}{section.1}\protected@file@percent }
\citation{DasguptaHeal1979}
\@writefile{toc}{\contentsline {section}{\numberline {2}Theoretical Framework}{4}{section.2}\protected@file@percent }
\newlabel{sec:thframe}{{2}{4}{Theoretical Framework}{section.2}{}}
\citation{El2016}
\citation{pelaez2018evolucion}
\citation{Ley701993}
\@writefile{lof}{\contentsline {figure}{\numberline {1}{\ignorespaces The effect of titling on deforestation\relax }}{6}{figure.caption.1}\protected@file@percent }
\providecommand*\caption@xref[2]{\@setref\relax\@undefined{#1}}
\newlabel{fig:heatmap}{{1}{6}{The effect of titling on deforestation\relax }{figure.caption.1}{}}
\@writefile{toc}{\contentsline {section}{\numberline {3}Context and data}{7}{section.3}\protected@file@percent }
\newlabel{sec:design}{{3}{7}{Context and data}{section.3}{}}
\@writefile{toc}{\contentsline {subsection}{\numberline {3.1}Background}{7}{subsection.3.1}\protected@file@percent }
\citation{sigot}
\@writefile{lof}{\contentsline {figure}{\numberline {2}{\ignorespaces Communal titles under Law 70 of 1993\relax }}{9}{figure.caption.2}\protected@file@percent }
\newlabel{fig:communal}{{2}{9}{Communal titles under Law 70 of 1993\relax }{figure.caption.2}{}}
\newlabel{fig:CummulativeTitled}{{2a}{9}{Total area under communal titles by year\relax }{figure.caption.2}{}}
\newlabel{sub@fig:CummulativeTitled}{{a}{9}{Total area under communal titles by year\relax }{figure.caption.2}{}}
\newlabel{fig:MapaPacifico}{{2b}{9}{Communal titles in 2016\relax }{figure.caption.2}{}}
\newlabel{sub@fig:MapaPacifico}{{b}{9}{Communal titles in 2016\relax }{figure.caption.2}{}}
\citation{Hansen_etal}
\citation{ideam}
\citation{ideam}
\citation{Hansen_etal}
\citation{Hansen_etal}
\citation{Hansen_etal}
\citation{ideam}
\@writefile{toc}{\contentsline {subsection}{\numberline {3.2}Data}{10}{subsection.3.2}\protected@file@percent }
\@writefile{lof}{\contentsline {figure}{\numberline {3}{\ignorespaces Forest cover in area eligible for communal titling \relax }}{11}{figure.caption.3}\protected@file@percent }
\newlabel{fig:forest_zona}{{3}{11}{Forest cover in area eligible for communal titling \relax }{figure.caption.3}{}}
\citation{divagis}
\citation{Calonicoetal2017}
\@writefile{lot}{\contentsline {table}{\numberline {1}{\ignorespaces Characteristics of communal titles\relax }}{12}{table.caption.4}\protected@file@percent }
\newlabel{tab:sum_stat_titles}{{1}{12}{Characteristics of communal titles\relax }{table.caption.4}{}}
\@writefile{toc}{\contentsline {subsection}{\numberline {3.3}Other data}{12}{subsection.3.3}\protected@file@percent }
\@writefile{toc}{\contentsline {section}{\numberline {4}Empirical strategy}{12}{section.4}\protected@file@percent }
\newlabel{sec:id}{{4}{12}{Empirical strategy}{section.4}{}}
\newlabel{eq:emp}{{1}{12}{Empirical strategy}{equation.4.1}{}}
\@writefile{lof}{\contentsline {figure}{\numberline {4}{\ignorespaces Visual representation of differences-in-discontinuities identification strategy \relax }}{15}{figure.caption.6}\protected@file@percent }
\newlabel{fig:id_visual}{{4}{15}{Visual representation of differences-in-discontinuities identification strategy \relax }{figure.caption.6}{}}
\newlabel{eq:empES}{{2}{15}{Empirical strategy}{equation.4.2}{}}
\citation{BonillaHiguera2019}
\newlabel{eq:emp_pixFE}{{3}{16}{Empirical strategy}{equation.4.3}{}}
\@writefile{toc}{\contentsline {subsection}{\numberline {4.1}Data balance}{16}{subsection.4.1}\protected@file@percent }
\newlabel{eq:RD}{{4}{16}{Data balance}{equation.4.4}{}}
\citation{replication}
\@writefile{lot}{\contentsline {table}{\numberline {2}{\ignorespaces Summary statistics around the boundary of forest coverage and time-invariant covariates \relax }}{17}{table.caption.7}\protected@file@percent }
\newlabel{tab:balance}{{2}{17}{Summary statistics around the boundary of forest coverage and time-invariant covariates \relax }{table.caption.7}{}}
\@writefile{toc}{\contentsline {section}{\numberline {5}Empirical Results}{18}{section.5}\protected@file@percent }
\newlabel{sec:results}{{5}{18}{Empirical Results}{section.5}{}}
\@writefile{toc}{\contentsline {subsection}{\numberline {5.1}Main results}{18}{subsection.5.1}\protected@file@percent }
\@writefile{lof}{\contentsline {figure}{\numberline {5}{\ignorespaces Lack of forest coverage inside and outside communal lands, before and after titling\relax }}{19}{figure.caption.9}\protected@file@percent }
\newlabel{fig:EvStu}{{5}{19}{Lack of forest coverage inside and outside communal lands, before and after titling\relax }{figure.caption.9}{}}
\citation{Hansen_etal}
\citation{Calonicoetal2017}
\citation{Hansen_etal}
\citation{ideam}
\citation{Hansen_etal}
\@writefile{lot}{\contentsline {table}{\numberline {3}{\ignorespaces Effect of communal titling on forest coverage \relax }}{21}{table.caption.10}\protected@file@percent }
\newlabel{tab:main}{{3}{21}{Effect of communal titling on forest coverage \relax }{table.caption.10}{}}
\@writefile{toc}{\contentsline {subsection}{\numberline {5.2}Robustness checks}{21}{subsection.5.2}\protected@file@percent }
\newlabel{sec:robust}{{5.2}{21}{Robustness checks}{subsection.5.2}{}}
\citation{Hansen_etal}
\citation{ideam}
\citation{Calonicoetal2017}
\@writefile{lot}{\contentsline {table}{\numberline {4}{\ignorespaces Effect of communal titling on forest coverage\relax }}{22}{table.caption.12}\protected@file@percent }
\newlabel{tab:main_pix}{{4}{22}{Effect of communal titling on forest coverage\relax }{table.caption.12}{}}
\citation{Chomitz1996}
\@writefile{toc}{\contentsline {subsection}{\numberline {5.3}Spillovers}{23}{subsection.5.3}\protected@file@percent }
\newlabel{sec:spillovers}{{5.3}{23}{Spillovers}{subsection.5.3}{}}
\citation{Hansen_etal}
\citation{Calonicoetal2017}
\citation{BonillaHiguera2019}
\citation{Velez_etal2020}
\citation{BonillaHiguera2019}
\citation{Velez_etal2020}
\citation{BonillaHiguera2019}
\citation{Velez_etal2020}
\citation{NBERw25018}
\citation{Velez_etal2020}
\citation{Velez_etal2020}
\citation{Velez_etal2020}
\@writefile{lot}{\contentsline {table}{\numberline {5}{\ignorespaces Possible spillovers of titling \relax }}{24}{table.caption.14}\protected@file@percent }
\newlabel{tab:PlOc}{{5}{24}{Possible spillovers of titling \relax }{table.caption.14}{}}
\@writefile{toc}{\contentsline {section}{\numberline {6}Conclusions}{24}{section.6}\protected@file@percent }
\newlabel{sec:conclusion}{{6}{24}{Conclusions}{section.6}{}}
\citation{Penaetal2017}
\citation{Alix2007}
\bibstyle{apacite}
\bibdata{Communalbib}
\bibcite{AGRAWAL20011649}{\citeauthoryear {Agrawal}{Agrawal}{{\APACyear {2001}}}}
\APACbibcite{AGRAWAL20011649}{\citeauthoryear {Agrawal}{Agrawal}{{\APACyear {2001}}}}
\bibcite{agrawal2001group}{\citeauthoryear {Agrawal\ \BBA{} Goyal}{Agrawal\ \BBA{} Goyal}{{\APACyear {2001}}}}
\APACbibcite{agrawal2001group}{\citeauthoryear {Agrawal\ \BBA{} Goyal}{Agrawal\ \BBA{} Goyal}{{\APACyear {2001}}}}
\bibcite{Alix2007}{\citeauthoryear {Alix-Garcia}{Alix-Garcia}{{\APACyear {2007}}}}
\APACbibcite{Alix2007}{\citeauthoryear {Alix-Garcia}{Alix-Garcia}{{\APACyear {2007}}}}
\bibcite{Andam_etal2008}{\citeauthoryear {Andam, Ferraro, Pfaff, Sanchez-Azofeifa,{}\ \BBA{} Robalino}{Andam\ \BOthers {.}}{{\APACyear {2008}}}}
\APACbibcite{Andam_etal2008}{\citeauthoryear {Andam, Ferraro, Pfaff, Sanchez-Azofeifa,{}\ \BBA{} Robalino}{Andam\ \BOthers {.}}{{\APACyear {2008}}}}
\bibcite{barcelo2015group}{\citeauthoryear {Barcelo\ \BBA{} Capraro}{Barcelo\ \BBA{} Capraro}{{\APACyear {2015}}}}
\APACbibcite{barcelo2015group}{\citeauthoryear {Barcelo\ \BBA{} Capraro}{Barcelo\ \BBA{} Capraro}{{\APACyear {2015}}}}
\@writefile{toc}{\contentsline {section}{References}{27}{section*.17}\protected@file@percent }
\bibcite{Barsimantovetal2012}{\citeauthoryear {Barsimantov\ \BBA{} Kendall}{Barsimantov\ \BBA{} Kendall}{{\APACyear {2012}}}}
\APACbibcite{Barsimantovetal2012}{\citeauthoryear {Barsimantov\ \BBA{} Kendall}{Barsimantov\ \BBA{} Kendall}{{\APACyear {2012}}}}
\bibcite{BenYishay_etal2017}{\citeauthoryear {BenYishay, Heuser, Runfola,{}\ \BBA{} Trichler}{BenYishay\ \BOthers {.}}{{\APACyear {2017}}}}
\APACbibcite{BenYishay_etal2017}{\citeauthoryear {BenYishay, Heuser, Runfola,{}\ \BBA{} Trichler}{BenYishay\ \BOthers {.}}{{\APACyear {2017}}}}
\bibcite{Blackman_etal2017}{\citeauthoryear {Blackman, Corral, Lima,{}\ \BBA{} Asner}{Blackman\ \BOthers {.}}{{\APACyear {2017}}}}
\APACbibcite{Blackman_etal2017}{\citeauthoryear {Blackman, Corral, Lima,{}\ \BBA{} Asner}{Blackman\ \BOthers {.}}{{\APACyear {2017}}}}
\bibcite{BlackmanVeit2018}{\citeauthoryear {Blackman\ \BBA{} Veit}{Blackman\ \BBA{} Veit}{{\APACyear {2018}}}}
\APACbibcite{BlackmanVeit2018}{\citeauthoryear {Blackman\ \BBA{} Veit}{Blackman\ \BBA{} Veit}{{\APACyear {2018}}}}
\bibcite{BonillaHiguera2019}{\citeauthoryear {Bonilla-Mejia\ \BBA{} Higuera-Mendieta}{Bonilla-Mejia\ \BBA{} Higuera-Mendieta}{{\APACyear {2019}}}}
\APACbibcite{BonillaHiguera2019}{\citeauthoryear {Bonilla-Mejia\ \BBA{} Higuera-Mendieta}{Bonilla-Mejia\ \BBA{} Higuera-Mendieta}{{\APACyear {2019}}}}
\bibcite{Buschetal2017}{\citeauthoryear {Busch\ \BBA{} Ferretti-Gallon}{Busch\ \BBA{} Ferretti-Gallon}{{\APACyear {2017}}}}
\APACbibcite{Buschetal2017}{\citeauthoryear {Busch\ \BBA{} Ferretti-Gallon}{Busch\ \BBA{} Ferretti-Gallon}{{\APACyear {2017}}}}
\bibcite{Calonicoetal2017}{\citeauthoryear {Calonico, Cattaneo, Farrell,{}\ \BBA{} Titiunik}{Calonico\ \BOthers {.}}{{\APACyear {2017}}}}
\APACbibcite{Calonicoetal2017}{\citeauthoryear {Calonico, Cattaneo, Farrell,{}\ \BBA{} Titiunik}{Calonico\ \BOthers {.}}{{\APACyear {2017}}}}
\bibcite{Chavez_etal2019}{\citeauthoryear {Ch\'avez, Murphy,{}\ \BBA{} Stranlund}{Ch\'avez\ \BOthers {.}}{{\APACyear {2019}}}}
\APACbibcite{Chavez_etal2019}{\citeauthoryear {Ch\'avez, Murphy,{}\ \BBA{} Stranlund}{Ch\'avez\ \BOthers {.}}{{\APACyear {2019}}}}
\bibcite{Chomitz1996}{\citeauthoryear {Chomitz\ \BBA{} Gray}{Chomitz\ \BBA{} Gray}{{\APACyear {1996}}}}
\APACbibcite{Chomitz1996}{\citeauthoryear {Chomitz\ \BBA{} Gray}{Chomitz\ \BBA{} Gray}{{\APACyear {1996}}}}
\bibcite{Ley701993}{\citeauthoryear {{Congreso de Colombia}}{{Congreso de Colombia}}{{\APACyear {1993}}}}
\APACbibcite{Ley701993}{\citeauthoryear {{Congreso de Colombia}}{{Congreso de Colombia}}{{\APACyear {1993}}}}
\bibcite{DasguptaHeal1979}{\citeauthoryear {Dasgupta\ \BBA{} Heal}{Dasgupta\ \BBA{} Heal}{{\APACyear {1979}}}}
\APACbibcite{DasguptaHeal1979}{\citeauthoryear {Dasgupta\ \BBA{} Heal}{Dasgupta\ \BBA{} Heal}{{\APACyear {1979}}}}
\bibcite{DeJanvrySadoulet2001}{\citeauthoryear {De~Janvry, Sadoulet,{}\ \BBA{} Wolford}{De~Janvry\ \BOthers {.}}{{\APACyear {2001}}}}
\APACbibcite{DeJanvrySadoulet2001}{\citeauthoryear {De~Janvry, Sadoulet,{}\ \BBA{} Wolford}{De~Janvry\ \BOthers {.}}{{\APACyear {2001}}}}
\bibcite{divagis}{\citeauthoryear {{DIVA-GIS}}{{DIVA-GIS}}{{\APACyear {2019}}}}
\APACbibcite{divagis}{\citeauthoryear {{DIVA-GIS}}{{DIVA-GIS}}{{\APACyear {2019}}}}
\bibcite{El2016}{\citeauthoryear {{El Tiempo}}{{El Tiempo}}{{\APACyear {2016}}}}
\APACbibcite{El2016}{\citeauthoryear {{El Tiempo}}{{El Tiempo}}{{\APACyear {2016}}}}
\bibcite{IDEAM2014}{\citeauthoryear {Galindo, Espejo, Rubiano, Vergara,{}\ \BBA{} Cabrera}{Galindo\ \BOthers {.}}{{\APACyear {2014}}}}
\APACbibcite{IDEAM2014}{\citeauthoryear {Galindo, Espejo, Rubiano, Vergara,{}\ \BBA{} Cabrera}{Galindo\ \BOthers {.}}{{\APACyear {2014}}}}
\bibcite{Gilmour2016}{\citeauthoryear {Gilmour}{Gilmour}{{\APACyear {2016}}}}
\APACbibcite{Gilmour2016}{\citeauthoryear {Gilmour}{Gilmour}{{\APACyear {2016}}}}
\bibcite{NBERw25018}{\citeauthoryear {Goodman-Bacon}{Goodman-Bacon}{{\APACyear {2018}}}}
\APACbibcite{NBERw25018}{\citeauthoryear {Goodman-Bacon}{Goodman-Bacon}{{\APACyear {2018}}}}
\bibcite{Hansen_etal}{\citeauthoryear {Hansen\ \BOthers {.}}{Hansen\ \BOthers {.}}{{\APACyear {2013}}}}
\APACbibcite{Hansen_etal}{\citeauthoryear {Hansen\ \BOthers {.}}{Hansen\ \BOthers {.}}{{\APACyear {2013}}}}
\bibcite{ideam}{\citeauthoryear {{Instituto de Hidrolog\'ia, Meteorolog\'ia y Estudios Ambientales (IDEAM)}}{{Instituto de Hidrolog\'ia, Meteorolog\'ia y Estudios Ambientales (IDEAM)}}{{\APACyear {2019}}}}
\APACbibcite{ideam}{\citeauthoryear {{Instituto de Hidrolog\'ia, Meteorolog\'ia y Estudios Ambientales (IDEAM)}}{{Instituto de Hidrolog\'ia, Meteorolog\'ia y Estudios Ambientales (IDEAM)}}{{\APACyear {2019}}}}
\bibcite{JonesLewis(2015)}{\citeauthoryear {Jones\ \BBA{} Lewis}{Jones\ \BBA{} Lewis}{{\APACyear {2015}}}}
\APACbibcite{JonesLewis(2015)}{\citeauthoryear {Jones\ \BBA{} Lewis}{Jones\ \BBA{} Lewis}{{\APACyear {2015}}}}
\bibcite{Ostrom1990}{\citeauthoryear {Ostrom}{Ostrom}{{\APACyear {1990}}}}
\APACbibcite{Ostrom1990}{\citeauthoryear {Ostrom}{Ostrom}{{\APACyear {1990}}}}
\bibcite{Ostrom1998}{\citeauthoryear {Ostrom}{Ostrom}{{\APACyear {1998}}}}
\APACbibcite{Ostrom1998}{\citeauthoryear {Ostrom}{Ostrom}{{\APACyear {1998}}}}
\bibcite{pelaez2018evolucion}{\citeauthoryear {Pel{\'a}ez~Thompson\ \BBA{} V{\'a}squez~Duque}{Pel{\'a}ez~Thompson\ \BBA{} V{\'a}squez~Duque}{{\APACyear {2018}}}}
\APACbibcite{pelaez2018evolucion}{\citeauthoryear {Pel{\'a}ez~Thompson\ \BBA{} V{\'a}squez~Duque}{Pel{\'a}ez~Thompson\ \BBA{} V{\'a}squez~Duque}{{\APACyear {2018}}}}
\bibcite{Penaetal2017}{\citeauthoryear {Pe{\~n}a, V{\'e}lez, C{\'a}rdenas, Perdomo,{}\ \BBA{} Matajira}{Pe{\~n}a\ \BOthers {.}}{{\APACyear {2017}}}}
\APACbibcite{Penaetal2017}{\citeauthoryear {Pe{\~n}a, V{\'e}lez, C{\'a}rdenas, Perdomo,{}\ \BBA{} Matajira}{Pe{\~n}a\ \BOthers {.}}{{\APACyear {2017}}}}
\bibcite{Pfaff_etal2014}{\citeauthoryear {Pfaff, Robalino, Lima, Sandoval,{}\ \BBA{} Herrera}{Pfaff\ \BOthers {.}}{{\APACyear {2014}}}}
\APACbibcite{Pfaff_etal2014}{\citeauthoryear {Pfaff, Robalino, Lima, Sandoval,{}\ \BBA{} Herrera}{Pfaff\ \BOthers {.}}{{\APACyear {2014}}}}
\bibcite{PoteeteOstrom(2004)}{\citeauthoryear {Poteete\ \BBA{} Ostrom}{Poteete\ \BBA{} Ostrom}{{\APACyear {2004}}}}
\APACbibcite{PoteeteOstrom(2004)}{\citeauthoryear {Poteete\ \BBA{} Ostrom}{Poteete\ \BBA{} Ostrom}{{\APACyear {2004}}}}
\bibcite{RobalinoPfaff(2012)}{\citeauthoryear {Robalino\ \BBA{} Pfaff}{Robalino\ \BBA{} Pfaff}{{\APACyear {2012}}}}
\APACbibcite{RobalinoPfaff(2012)}{\citeauthoryear {Robalino\ \BBA{} Pfaff}{Robalino\ \BBA{} Pfaff}{{\APACyear {2012}}}}
\bibcite{replication}{\citeauthoryear {Romero\ \BBA{} Saavedra}{Romero\ \BBA{} Saavedra}{{\APACyear {2020}}}}
\APACbibcite{replication}{\citeauthoryear {Romero\ \BBA{} Saavedra}{Romero\ \BBA{} Saavedra}{{\APACyear {2020}}}}
\bibcite{Rueda2010}{\citeauthoryear {Rueda}{Rueda}{{\APACyear {2010}}}}
\APACbibcite{Rueda2010}{\citeauthoryear {Rueda}{Rueda}{{\APACyear {2010}}}}
\bibcite{rustagi2010conditional}{\citeauthoryear {Rustagi, Engel,{}\ \BBA{} Kosfeld}{Rustagi\ \BOthers {.}}{{\APACyear {2010}}}}
\APACbibcite{rustagi2010conditional}{\citeauthoryear {Rustagi, Engel,{}\ \BBA{} Kosfeld}{Rustagi\ \BOthers {.}}{{\APACyear {2010}}}}
\bibcite{SHIN2020106657}{\citeauthoryear {Shin\ \BOthers {.}}{Shin\ \BOthers {.}}{{\APACyear {2020}}}}
\APACbibcite{SHIN2020106657}{\citeauthoryear {Shin\ \BOthers {.}}{Shin\ \BOthers {.}}{{\APACyear {2020}}}}
\bibcite{sigot}{\citeauthoryear {{Sistema de Informaci\'on Geogr\'afica para la planeaci\'on y el Ordenamiento Territorial ({SIGOT})}}{{Sistema de Informaci\'on Geogr\'afica para la planeaci\'on y el Ordenamiento Territorial ({SIGOT})}}{{\APACyear {2019}}}}
\APACbibcite{sigot}{\citeauthoryear {{Sistema de Informaci\'on Geogr\'afica para la planeaci\'on y el Ordenamiento Territorial ({SIGOT})}}{{Sistema de Informaci\'on Geogr\'afica para la planeaci\'on y el Ordenamiento Territorial ({SIGOT})}}{{\APACyear {2019}}}}
\bibcite{Velez_etal2020}{\citeauthoryear {Velez, Robalino, Cardenas, Paz,{}\ \BBA{} Pacay}{Velez\ \BOthers {.}}{{\APACyear {2020}}}}
\APACbibcite{Velez_etal2020}{\citeauthoryear {Velez, Robalino, Cardenas, Paz,{}\ \BBA{} Pacay}{Velez\ \BOthers {.}}{{\APACyear {2020}}}}
\bibcite{Yang10916}{\citeauthoryear {Yang\ \BOthers {.}}{Yang\ \BOthers {.}}{{\APACyear {2013}}}}
\APACbibcite{Yang10916}{\citeauthoryear {Yang\ \BOthers {.}}{Yang\ \BOthers {.}}{{\APACyear {2013}}}}
\@writefile{toc}{\contentsline {section}{\numberline {A}Additional tables and figures}{1}{appendix.A}\protected@file@percent }
\newlabel{sec:extra_tab_fig}{{A}{1}{Additional tables and figures}{appendix.A}{}}
\@writefile{lof}{\contentsline {figure}{\numberline {A.1}{\ignorespaces Years in which titles were requested and granted \relax }}{1}{figure.caption.18}\protected@file@percent }
\newlabel{fig:histReqGranted}{{A.1}{1}{Years in which titles were requested and granted \relax }{figure.caption.18}{}}
\@writefile{lot}{\contentsline {table}{\numberline {A.1}{\ignorespaces Summary statistics around the boundary of time-invariant covariates and forest coverage\relax }}{2}{table.caption.19}\protected@file@percent }
\newlabel{tab:balance_extra}{{A.1}{2}{Summary statistics around the boundary of time-invariant covariates and forest coverage\relax }{table.caption.19}{}}
\@writefile{lot}{\contentsline {table}{\numberline {A.2}{\ignorespaces Characteristics of communal titles by population\relax }}{3}{table.caption.21}\protected@file@percent }
\newlabel{tab:sum_stat_titles_pop}{{A.2}{3}{Characteristics of communal titles by population\relax }{table.caption.21}{}}
\citation{Hansen_etal}
\citation{Calonicoetal2017}
\@writefile{lot}{\contentsline {table}{\numberline {A.3}{\ignorespaces Characteristics of communal titles by area\relax }}{4}{table.caption.23}\protected@file@percent }
\newlabel{tab:sum_stat_titles_area}{{A.3}{4}{Characteristics of communal titles by area\relax }{table.caption.23}{}}
\citation{Hansen_etal}
\citation{Calonicoetal2017}
\citation{ideam}
\citation{IDEAM2014}
\citation{Hansen_etal}
\citation{Hansen_etal}
\citation{Hansen_etal}
\@writefile{lot}{\contentsline {table}{\numberline {A.4}{\ignorespaces Heterogeneity by area, population, and their interaction \relax }}{5}{table.caption.25}\protected@file@percent }
\newlabel{taba:PopArea_Combined}{{A.4}{5}{Heterogeneity by area, population, and their interaction \relax }{table.caption.25}{}}
\@writefile{lot}{\contentsline {table}{\numberline {A.5}{\ignorespaces Robustness effect of communal titling on forest coverage \relax }}{5}{table.caption.27}\protected@file@percent }
\newlabel{taba:robust_reg}{{A.5}{5}{Robustness effect of communal titling on forest coverage \relax }{table.caption.27}{}}
\@writefile{toc}{\contentsline {section}{\numberline {B}IDEAM data}{6}{appendix.B}\protected@file@percent }
\newlabel{sec:ideam_data}{{B}{6}{IDEAM data}{appendix.B}{}}
\@writefile{toc}{\contentsline {section}{\numberline {C}Details of Theoretical Framework}{7}{appendix.C}\protected@file@percent }
\newlabel{asec:model}{{C}{7}{Details of Theoretical Framework}{appendix.C}{}}
\@writefile{toc}{\contentsline {subsection}{\numberline {C.1}Common resource titling}{8}{subsection.C.1}\protected@file@percent }
\newlabel{eq:focn1_1}{{13}{9}{Common resource titling}{equation.C.13}{}}
\newlabel{eq:focn1_2}{{14}{9}{Common resource titling}{equation.C.13}{}}
\@writefile{toc}{\contentsline {subsection}{\numberline {C.2}Comparative statics}{10}{subsection.C.2}\protected@file@percent }
\@writefile{lof}{\contentsline {figure}{\numberline {C.1}{\ignorespaces Deforestation and the number of owners of communal title\relax }}{11}{figure.caption.30}\protected@file@percent }
\newlabel{fig:th_defT}{{C.1}{11}{Deforestation and the number of owners of communal title\relax }{figure.caption.30}{}}
\@writefile{lof}{\contentsline {figure}{\numberline {C.2}{\ignorespaces Monitoring effort and number of owners of communal title\relax }}{12}{figure.caption.31}\protected@file@percent }
\newlabel{fig:th_effort}{{C.2}{12}{Monitoring effort and number of owners of communal title\relax }{figure.caption.31}{}}
\newlabel{fig:th_Indive}{{C.2a}{12}{Individual monitoring effort \relax }{figure.caption.31}{}}
\newlabel{sub@fig:th_Indive}{{a}{12}{Individual monitoring effort \relax }{figure.caption.31}{}}
\newlabel{fig:th_Totale}{{C.2b}{12}{Total monitoring effort\relax }{figure.caption.31}{}}
\newlabel{sub@fig:th_Totale}{{b}{12}{Total monitoring effort\relax }{figure.caption.31}{}}
\@writefile{lof}{\contentsline {figure}{\numberline {C.3}{\ignorespaces Outsider and owner deforestation by number of titled individuals\relax }}{13}{figure.caption.32}\protected@file@percent }
\newlabel{fig:th_defbygroup}{{C.3}{13}{Outsider and owner deforestation by number of titled individuals\relax }{figure.caption.32}{}}
\newlabel{fig:th_defind_bygroup}{{C.3a}{13}{Individual deforestation by group\relax }{figure.caption.32}{}}
\newlabel{sub@fig:th_defind_bygroup}{{a}{13}{Individual deforestation by group\relax }{figure.caption.32}{}}
\newlabel{fig:th_defT_bygroup}{{C.3b}{13}{Total deforestation by group \relax }{figure.caption.32}{}}
\newlabel{sub@fig:th_defT_bygroup}{{b}{13}{Total deforestation by group \relax }{figure.caption.32}{}}
