\BOOKMARK [1][-]{section.1}{Introduction}{}% 1
\BOOKMARK [1][-]{section.2}{Theoretical Framework}{}% 2
\BOOKMARK [1][-]{section.3}{Context and data}{}% 3
\BOOKMARK [2][-]{subsection.3.1}{Background}{section.3}% 4
\BOOKMARK [2][-]{subsection.3.2}{Data}{section.3}% 5
\BOOKMARK [2][-]{subsection.3.3}{Other data}{section.3}% 6
\BOOKMARK [1][-]{section.4}{Empirical strategy}{}% 7
\BOOKMARK [2][-]{subsection.4.1}{Data balance}{section.4}% 8
\BOOKMARK [1][-]{section.5}{Empirical Results}{}% 9
\BOOKMARK [2][-]{subsection.5.1}{Main results}{section.5}% 10
\BOOKMARK [2][-]{subsection.5.2}{Robustness checks}{section.5}% 11
\BOOKMARK [2][-]{subsection.5.3}{Spillovers}{section.5}% 12
\BOOKMARK [1][-]{section.6}{Conclusions}{}% 13
\BOOKMARK [1][-]{section*.17}{References}{}% 14
\BOOKMARK [1][-]{appendix.A}{Additional tables and figures}{}% 15
\BOOKMARK [1][-]{appendix.B}{IDEAM data}{}% 16
\BOOKMARK [1][-]{appendix.C}{Details of Theoretical Framework}{}% 17
\BOOKMARK [2][-]{subsection.C.1}{Common resource titling}{appendix.C}% 18
\BOOKMARK [2][-]{subsection.C.2}{Comparative statics}{appendix.C}% 19
